................
----------------------------------------------------------------------
Ran 16 tests in 0.623s

OK
Name             Stmts   Miss Branch BrPart  Cover   Missing
------------------------------------------------------------
Collatz.py          56      0     30      0   100%
TestCollatz.py      69      0      0      0   100%
------------------------------------------------------------
TOTAL              125      0     30      0   100%
